C:\Users\Connor Stack\Documents\JobHunting\EnlightenProject\Enlighten\alphabetsoup\src\main\java\enlighten\internproject\Main.java
C:\Users\Connor Stack\Documents\JobHunting\EnlightenProject\Enlighten\alphabetsoup\src\main\java\enlighten\internproject\Model\WordPuzzleSolver.java
C:\Users\Connor Stack\Documents\JobHunting\EnlightenProject\Enlighten\alphabetsoup\src\main\java\enlighten\internproject\Controller\WordPuzzleContent.java
C:\Users\Connor Stack\Documents\JobHunting\EnlightenProject\Enlighten\alphabetsoup\src\main\java\enlighten\internproject\View\DisplaySolvedPuzzle.java
C:\Users\Connor Stack\Documents\JobHunting\EnlightenProject\Enlighten\alphabetsoup\src\main\java\enlighten\internproject\Controller\TextFileReader.java
